…
``` r
library(p8105.datasets)
data("instacart")
instacart_df = janitor::clean_names(instacart) %>%
  drop_na() %>%
  distinct()
instacart_df
```

    ## # A tibble: 1,384,617 × 15
    ##    order_id product_id add_to_cart_order reordered user_id eval_set order_number
    ##       <int>      <int>             <int>     <int>   <int> <chr>           <int>
    ##  1        1      49302                 1         1  112108 train               4
    ##  2        1      11109                 2         1  112108 train               4
    ##  3        1      10246                 3         0  112108 train               4
    ##  4        1      49683                 4         0  112108 train               4
    ##  5        1      43633                 5         1  112108 train               4
    ##  6        1      13176                 6         0  112108 train               4
    ##  7        1      47209                 7         0  112108 train               4
    ##  8        1      22035                 8         1  112108 train               4
    ##  9       36      39612                 1         0   79431 train              23
    ## 10       36      19660                 2         1   79431 train              23
    ## # … with 1,384,607 more rows, and 8 more variables: order_dow <int>,
    ## #   order_hour_of_day <int>, days_since_prior_order <int>, product_name <chr>,
    ## #   aisle_id <int>, department_id <int>, aisle <chr>, department <chr>
…
    ## [1] 1384617

``` r
instacart_col
```

    ## [1] 15

``` r
aisleList
```

    ## # A tibble: 134 × 3
    ## # Groups:   aisle_id [134]
    ##    aisle_id aisle                      numOfObs
    ##       <int> <chr>                         <int>
    ##  1        1 prepared soups salads          2936
    ##  2        2 specialty cheeses              3873
    ##  3        3 energy granola bars           17449
    ##  4        4 instant foods                  9917
    ##  5        5 marinades meat preparation     2905
    ##  6        6 other                          1795
    ##  7        7 packaged meat                  1526
    ##  8        8 bakery desserts                1501
    ##  9        9 pasta sauce                    9736
    ## 10       10 kitchen supplies                448
    ## # … with 124 more rows

1.  How many aisles are there, and which aisles are the most items
    ordered from?

``` r
aisleList %>%
  arrange(desc(numOfObs))
```

    ## # A tibble: 134 × 3
    ## # Groups:   aisle_id [134]
    ##    aisle_id aisle                         numOfObs
    ##       <int> <chr>                            <int>
    ##  1       83 fresh vegetables                150609
    ##  2       24 fresh fruits                    150473
    ##  3      123 packaged vegetables fruits       78493
    ##  4      120 yogurt                           55240
    ##  5       21 packaged cheese                  41699
    ##  6      115 water seltzer sparkling water    36617
    ##  7       84 milk                             32644
    ##  8      107 chips pretzels                   31269
    ##  9       91 soy lactosefree                  26240
    ## 10      112 bread                            23635
    ## # … with 124 more rows

``` r
aisleList
```

    ## # A tibble: 134 × 3
    ## # Groups:   aisle_id [134]
    ##    aisle_id aisle                      numOfObs
    ##       <int> <chr>                         <int>
    ##  1        1 prepared soups salads          2936
    ##  2        2 specialty cheeses              3873
    ##  3        3 energy granola bars           17449
    ##  4        4 instant foods                  9917
    ##  5        5 marinades meat preparation     2905
    ##  6        6 other                          1795
    ##  7        7 packaged meat                  1526
    ##  8        8 bakery desserts                1501
    ##  9        9 pasta sauce                    9736
    ## 10       10 kitchen supplies                448
    ## # … with 124 more rows
…
4.  Make a table showing the mean hour of the day at which Pink Lady
    Apples and Coffee Ice Cream are ordered on each day of the week;
    format this table for human readers (i.e. produce a 2 x 7 table).

``` r
instacart_df
```

    ## # A tibble: 1,384,617 × 15
    ##    order_id product_id add_to_cart_order reordered user_id eval_set order_number
    ##       <int>      <int>             <int>     <int>   <int> <chr>           <int>
    ##  1        1      49302                 1         1  112108 train               4
    ##  2        1      11109                 2         1  112108 train               4
    ##  3        1      10246                 3         0  112108 train               4
    ##  4        1      49683                 4         0  112108 train               4
    ##  5        1      43633                 5         1  112108 train               4
    ##  6        1      13176                 6         0  112108 train               4
    ##  7        1      47209                 7         0  112108 train               4
    ##  8        1      22035                 8         1  112108 train               4
    ##  9       36      39612                 1         0   79431 train              23
    ## 10       36      19660                 2         1   79431 train              23
    ## # … with 1,384,607 more rows, and 8 more variables: order_dow <int>,
    ## #   order_hour_of_day <int>, days_since_prior_order <int>, product_name <chr>,
    ## #   aisle_id <int>, department_id <int>, aisle <chr>, department <chr>
…
``` r
brfss_smart2010_formatted = 
  brfss_smart2010 %>%
  janitor::clean_names() %>%
  filter(topic == "Overall Health") %>%
  mutate(
    response = as.factor(response)
  ) %>%
  filter(response == "Excellent"|response == "Very good"|response =="Good"|response == "Fair"|response == "Poor" )
brfss_smart2010_formatted$response = factor(brfss_smart2010_formatted$response,
                                            levels = (c("Excellent", "Very good", "Good", "Fair", "Poor")))
brfss_smart2010_formatted
```

    ## # A tibble: 10,625 × 23
    ##     year locationabbr locationdesc  class  topic  question  response sample_size
    ##    <int> <chr>        <chr>         <chr>  <chr>  <chr>     <fct>          <int>
    ##  1  2010 AL           AL - Jeffers… Healt… Overa… How is y… Excelle…          94
    ##  2  2010 AL           AL - Jeffers… Healt… Overa… How is y… Very go…         148
    ##  3  2010 AL           AL - Jeffers… Healt… Overa… How is y… Good             208
    ##  4  2010 AL           AL - Jeffers… Healt… Overa… How is y… Fair             107
    ##  5  2010 AL           AL - Jeffers… Healt… Overa… How is y… Poor              45
    ##  6  2010 AL           AL - Mobile … Healt… Overa… How is y… Excelle…          91
    ##  7  2010 AL           AL - Mobile … Healt… Overa… How is y… Very go…         177
    ##  8  2010 AL           AL - Mobile … Healt… Overa… How is y… Good             224
    ##  9  2010 AL           AL - Mobile … Healt… Overa… How is y… Fair             120
    ## 10  2010 AL           AL - Mobile … Healt… Overa… How is y… Poor              66
    ## # … with 10,615 more rows, and 15 more variables: data_value <dbl>,
    ## #   confidence_limit_low <dbl>, confidence_limit_high <dbl>,
    ## #   display_order <int>, data_value_unit <chr>, data_value_type <chr>,
    ## #   data_value_footnote_symbol <chr>, data_value_footnote <chr>,
    ## #   data_source <chr>, class_id <chr>, topic_id <chr>, location_id <chr>,
    ## #   question_id <chr>, respid <chr>, geo_location <chr>
…
    ## ── Column specification ────────────────────────────────────────────────────────
    ## Delimiter: ","
    ## chr    (1): day
    ## dbl (1442): week, day_id, activity.1, activity.2, activity.3, activity.4, ac...

    ## 
    ## ℹ Use `spec()` to retrieve the full column specification for this data.
    ## ℹ Specify the column types or set `show_col_types = FALSE` to quiet this message.

``` r
accelerometer_df
```

    ## # A tibble: 35 × 1,444
    ##     week day_id day       weekend activity_1 activity_2 activity_3 activity_4
    ##    <dbl>  <dbl> <chr>       <dbl>      <dbl>      <dbl>      <dbl>      <dbl>
    ##  1     1      1 Friday          0       88.4       82.2       64.4       70.0
    ##  2     1      2 Monday          0        1          1          1          1  
    ##  3     1      3 Saturday        1        1          1          1          1  
    ##  4     1      4 Sunday          1        1          1          1          1  
    ##  5     1      5 Thursday        0       47.4       48.8       46.9       35.8
    ##  6     1      6 Tuesday         0       64.8       59.5       73.7       45.7
    ##  7     1      7 Wednesday       0       71.1      103.        68.5       45.4
    ##  8     2      8 Friday          0      675        542       1010        779  
    ##  9     2      9 Monday          0      291        335        393        335  
    ## 10     2     10 Saturday        1       64         11          1          1  
    ## # … with 25 more rows, and 1,436 more variables: activity_5 <dbl>,
    ## #   activity_6 <dbl>, activity_7 <dbl>, activity_8 <dbl>, activity_9 <dbl>,
    ## #   activity_10 <dbl>, activity_11 <dbl>, activity_12 <dbl>, activity_13 <dbl>,
    ## #   activity_14 <dbl>, activity_15 <dbl>, activity_16 <dbl>, activity_17 <dbl>,
    ## #   activity_18 <dbl>, activity_19 <dbl>, activity_20 <dbl>, activity_21 <dbl>,
    ## #   activity_22 <dbl>, activity_23 <dbl>, activity_24 <dbl>, activity_25 <dbl>,
    ## #   activity_26 <dbl>, activity_27 <dbl>, activity_28 <dbl>, …

``` r
accelerometer_df_manipulated = 
  pivot_longer(accelerometer_df,
               activity_1:activity_1440,
               names_to = "activity",
               values_to = "activity_num",
               ) %>%
  separate(activity, into = c("activity","activity_min"), sep = "_") %>%
  select(-activity)
accelerometer_df_manipulated
```

    ## # A tibble: 50,400 × 6
    ##     week day_id day    weekend activity_min activity_num
    ##    <dbl>  <dbl> <chr>    <dbl> <chr>               <dbl>
    ##  1     1      1 Friday       0 1                    88.4
    ##  2     1      1 Friday       0 2                    82.2
    ##  3     1      1 Friday       0 3                    64.4
    ##  4     1      1 Friday       0 4                    70.0
    ##  5     1      1 Friday       0 5                    75.0
    ##  6     1      1 Friday       0 6                    66.3
    ##  7     1      1 Friday       0 7                    53.8
    ##  8     1      1 Friday       0 8                    47.8
    ##  9     1      1 Friday       0 9                    55.5
    ## 10     1      1 Friday       0 10                   43.0
    ## # … with 50,390 more rows
…
